[
    {
        "typeID":"emptyCup",
        "combinesWith":["water","teaLeaves"],
        "combineResult":["waterCup","leavesCup"],
        "spritePath":"assets/level2/emptyCup.png",
        "canDrag":false,
        "ephemeral":false
    },
    {
        "typeID":"water",
        "combinesWith":["emptyCup","leavesCup"],
        "combineResult":["waterCup","teaCup"],
        "spritePath":"assets/level2/water.png",
        "canDrag":true,
        "contains":null,
        "ephemeral":true
    },
    {
        "typeID":"teaLeaves",
        "combinesWith":["emptyCup","waterCup"],
        "combineResult":["leavesCup","teaCup"],
        "spritePath":"assets/level2/teaLeaves.png",
        "canDrag":true,
        "contains":null,
        "ephemeral":true
    },
    {
        "typeID":"teaCup",
        "combinesWith":[],
        "combineResult":[],
        "spritePath":"assets/level2/teaCup.png",
        "canDrag":false,
        "contains":null,
        "ephemeral":false
    },
    {
        "typeID":"leavesCup",
        "combinesWith":[],
        "combineResult":[],
        "spritePath":"assets/level2/leavesCup.png",
        "canDrag":false,
        "contains":null,
        "ephemeral":false
    },
    {
        "typeID":"waterCup",
        "combinesWith":[],
        "combineResult":[],
        "spritePath":"assets/level2/waterCup.png",
        "canDrag":false,
        "contains":null,
        "ephemeral":false
    },
    {
        "typeID":"teaBox",
        "combinesWith":[],
        "combineResult":[],
        "spritePath":"assets/level2/teaBox.png",
        "canDrag":false,
        "contains":"teaLeaves",
        "ephemeral":false
    }
    ,
    {
        "typeID":"kettle",
        "combinesWith":["emptyCup","leavesCup"],
        "combineResult":["waterCup","teaCup"],
        "spritePath":"assets/level2/kettle.png",
        "canDrag":true,
        "contains":null,
        "ephemeral":false
    },
    {
        "typeID":"background",
        "combinesWith":[],
        "combineResult":[],
        "spritePath":"assets/roomChina.jpg",
        "canDrag":false,
        "contains":null,
        "ephemeral":false
    }    
]